BRFSS 2023: Flu Shot Uptake and Insurance Status Analysis
…
# ---- Step 3: Summarize Model ----

# Tidy model summary with odds ratios and 95% confidence intervals
flu_model_summary <- tidy(flu_model, exponentiate = TRUE, conf.int = TRUE)

# View model output
flu_model_summary

# A tibble: 24 × 7
   term        estimate std.error statistic   p.value conf.low conf.high
   <chr>          <dbl>     <dbl>     <dbl>     <dbl>    <dbl>     <dbl>
 1 (Intercept)   0.0865  0.120       -20.4  1.20e- 92   0.0682     0.109
 2 insuredYes    1.02    0.00961       2.50 1.23e-  2   1.01       1.04 
 3 age           1.03    0.000261    129.   0           1.03       1.03 
 4 sexFemale     1.30    0.00777      33.3  1.54e-243   1.28       1.32 
 5 income2       1.10    0.0338        2.81 4.98e-  3   1.03       1.18 
 6 income3       1.07    0.0322        1.96 5.01e-  2   1.00       1.13 
 7 income4       1.07    0.0304        2.17 3.02e-  2   1.01       1.13 
 8 income5       1.09    0.0278        3.24 1.20e-  3   1.04       1.16 
 9 income6       1.15    0.0275        4.97 6.68e-  7   1.09       1.21 
10 income7       1.24    0.0274        7.71 1.28e- 14   1.17       1.30 
# ℹ 14 more rows
…
